<svg xmlns="http://www.w3.org/2000/svg" width="14.458" height="17.333" viewBox="0 0 14.458 17.333">
  <g id="down" transform="translate(1.413 0.5)">
    <path id="Icon_feather-chevron-down" data-name="Icon feather-chevron-down" d="M9,13.5l5.815,5.428L20.631,13.5" transform="translate(-9 -3.094)" fill="none" stroke="#fff" stroke-linecap="round" stroke-linejoin="round" stroke-width="2"/>
    <line id="Ligne_28" data-name="Ligne 28" y2="14" transform="translate(5.833 0.5)" fill="none" stroke="#fff" stroke-linecap="round" stroke-width="2"/>
  </g>
</svg>
