<?xml version="1.0" encoding="utf-8"?>
<!-- Generator: Adobe Illustrator 25.0.0, SVG Export Plug-In . SVG Version: 6.00 Build 0)  -->
<svg version="1.1" id="Calque_1" xmlns="http://www.w3.org/2000/svg" xmlns:xlink="http://www.w3.org/1999/xlink" x="0px" y="0px"
	 viewBox="0 0 504 504" style="enable-background:new 0 0 504 504;" xml:space="preserve">
<style type="text/css">
	.st0{fill:#273FF2;}
</style>
<path class="st0" d="M136.1,93.5h-25.1V43.2c0-4.6-3.8-8.4-8.4-8.4c-4.6,0-8.4,3.8-8.4,8.4v58.6c0,4.6,3.8,8.4,8.4,8.4h33.5
	c4.6,0,8.4-3.8,8.4-8.4C144.4,97.2,140.7,93.5,136.1,93.5z"/>
<path class="st0" d="M479.5,76.7h-4.3c-0.9-2.5-1.9-5-3.1-7.4l3-3c7.2-7.2,9.4-18,5.5-27.4c-3.9-9.4-13-15.5-23.2-15.6h0
	c-6.7,0-13.1,2.7-17.8,7.4l-3,3c-2.4-1.2-4.9-2.2-7.4-3.1v-4.3c0-13.9-11.3-25.1-25.1-25.1S379,12.6,379,26.5v4.3
	c-2.5,0.9-5,1.9-7.4,3.1l-3-3c-4.7-4.8-11.1-7.4-17.8-7.4h0c-10.2,0-19.3,6.2-23.2,15.6c-3.9,9.4-1.7,20.2,5.5,27.4l3,3
	c-1.2,2.4-2.2,4.9-3.1,7.4h-4.3c-13.9,0-25.1,11.3-25.1,25.1s11.3,25.1,25.1,25.1h4.3c0.9,2.5,1.9,5,3.1,7.4l-3,3
	c-7.6,7.5-9.6,19-4.9,28.6l-32.5,32.5c-11.5-7.8-25-12.3-38.9-12.8H249c-13.5,0.6-26.7,4.9-38,12.4l-31.6-31.6
	c35-41.5,31-103.2-8.9-139.8c-40-36.7-101.8-35.3-140.1,3.1C-7.8,68.2-9,130,27.8,169.9s98.5,43.6,139.9,8.5l31.6,31.6
	c-4.2,6.4-6.5,13.7-6.8,21.3c-0.1,1.9-0.1,3.6-0.2,5.3c-3.7-0.9-7.6-0.9-11.3,0.1c-11.7,3.1-13,18.3-10.2,32
	c4.3,11.4,13.5,20.3,25,24.2c-1.3,12.8,4.2,25.4,14.5,33.2c1.1,0.9,2,1.8,2.9,2.7c-4,11.9-9.8,23.1-17.2,33.2
	c-21.9,1.7-42.6,10.8-58.6,25.8c-13,15.5-19.5,35.4-18.2,55.5c0,59.1,120.3,60.7,134,60.7c13.7,0,134-1.7,134-60.7
	c1.3-20.2-5.2-40-18.2-55.5c-16.1-15-36.7-24-58.6-25.8c-7.5-10.2-13.3-21.6-17.3-33.6c0.8-0.8,1.6-1.5,2.5-2.3
	c10.4-7.9,15.9-20.7,14.5-33.7c11.7-3.8,21.1-12.6,25.5-24.1c2.9-13.3,1.8-28.7-10.6-31.7c-3.7-0.9-7.6-0.9-11.4,0
	c-0.1-1.7-0.1-3.3-0.2-5.3c-0.3-7.3-2.5-14.5-6.4-20.7l32.8-32.8c3.4,1.6,7,2.5,10.8,2.5h0c6.7,0,13.1-2.7,17.8-7.4l3-3
	c2.4,1.2,4.9,2.2,7.4,3.1v4.3c0,13.9,11.3,25.1,25.1,25.1s25.1-11.3,25.1-25.1V173c2.5-0.9,5-1.9,7.4-3.1l3,3
	c4.6,4.9,11.1,7.6,17.8,7.4c10.2,0,19.3-6.2,23.2-15.6c3.9-9.4,1.7-20.2-5.5-27.4l-3-3c1.2-2.4,2.2-4.9,3.1-7.4h4.3
	c13.9,0,25.1-11.3,25.1-25.1S493.4,76.7,479.5,76.7z M18.8,101.9c0-46.3,37.5-83.8,83.8-83.8s83.8,37.5,83.8,83.8
	s-37.5,83.8-83.8,83.8C56.3,185.6,18.8,148.1,18.8,101.9z M187.2,264.8c-0.9-4-1-8.1-0.5-12.1c2,0.1,4,0.7,5.7,1.8
	c0.3,6.3,1.1,12.6,2.4,18.8C191.6,271.1,188.9,268.2,187.2,264.8z M281,343.5c3.4,7.5,7.3,14.7,11.7,21.6c-12.8,3.9-26,6.2-39.4,6.9
	c-13.3-0.7-26.5-3-39.3-6.9c4.3-6.8,8.2-13.9,11.5-21.3c4.8,6.1,12.3,9.5,20,9.3h14.9C268.5,353.4,276.1,349.8,281,343.5L281,343.5z
	 M253.3,432.3c-17.3-13.3-31.2-30.5-40.5-50.2c13.2,3.8,26.8,6,40.5,6.6c13.7-0.6,27.3-2.8,40.5-6.6
	C284.5,401.9,270.6,419,253.3,432.3z M370.6,443.2c0,35.9-86.9,44-117.3,44s-117.3-8.1-117.3-44c-1.2-15.9,3.7-31.6,13.7-44
	c12.4-11.2,27.9-18.2,44.4-20.2c3.5,13.2,15.1,39.6,54,70.8c0.2,0.1,0.4,0.2,0.7,0.3c0.5,0.3,1,0.6,1.5,0.8c0.5,0.2,1,0.4,1.5,0.5
	c0.5,0.1,1.1,0.1,1.6,0.1c0.5,0,1,0,1.5-0.1c0.5-0.1,1-0.3,1.5-0.5c0.5-0.2,1-0.5,1.5-0.8c0.2-0.1,0.5-0.2,0.7-0.3
	c38.9-31.1,50.5-57.5,54-70.8c16.5,2,32,9,44.4,20.2C367,411.6,371.9,427.4,370.6,443.2L370.6,443.2z M285,313.3
	c-5.2,4.5-9.7,9.5-13.6,15.2c-4.7,6.5-6.1,8-10.9,8h-14.9c-4.8,0-6.1-1.5-10.9-8c-3.9-5.6-8.4-10.7-13.6-15.2
	c-7.1-5.3-10.4-14.2-8.4-22.8c0.1-2.2,0.2-4.4,0.2-6.7c-0.1-4.4-0.6-8.9-1.7-13.2c-2.6-12.6-3.3-25.6-2.1-38.4
	c1.4-27.8,38.9-29.7,40.1-29.8h7.1c0.4,0,39,1.8,40.5,29.8c1.2,12.8,0.5,25.8-2.1,38.4c-1,4.3-1.6,8.7-1.7,13.2
	c0,2.3,0.1,4.5,0.2,6.7C295.3,299,292.1,308,285,313.3z M319.7,264c-1.8,3.7-4.7,6.8-8.2,8.9c1.3-6.2,2.1-12.6,2.4-18.9
	c1.9-1,4-1.4,6.2-1.3C320.6,256.4,320.4,260.3,319.7,264z M487.9,101.9c0,4.6-3.8,8.4-8.4,8.4h-7.4c-5.5,0-10.4,3.6-11.9,8.9
	c-1.1,3.5-2.5,6.9-4.2,10.2c-2.6,4.9-1.7,10.9,2.2,14.8l5.2,5.2c2.4,2.4,3.1,6,1.8,9.1c-1.3,3.1-4.3,5.2-7.7,5.2
	c-2.2,0-4.4-0.9-5.9-2.5l-5.2-5.2c-3.9-3.9-9.9-4.8-14.8-2.2c-3.2,1.7-6.7,3.1-10.2,4.2c-5.3,1.6-9,6.4-9,12v7.4
	c0,4.6-3.8,8.4-8.4,8.4c-4.6,0-8.4-3.8-8.4-8.4v-7.4c0-5.5-3.6-10.4-8.9-11.9c-3.5-1.1-6.9-2.5-10.2-4.2c-1.8-1-3.9-1.5-6-1.5
	c-3.3,0-6.5,1.3-8.8,3.7l-5.2,5.2c-1.6,1.6-3.7,2.5-5.9,2.5c-4.6,0-8.4-3.8-8.4-8.4c0-2.2,0.9-4.4,2.5-5.9l5.2-5.2
	c3.9-3.9,4.8-9.9,2.2-14.8c-1.7-3.2-3.1-6.7-4.2-10.2c-1.6-5.3-6.5-8.9-12-8.9h-7.4c-4.6,0-8.4-3.8-8.4-8.4c0-4.6,3.8-8.4,8.4-8.4
	h7.4c5.5,0,10.4-3.6,11.9-8.9c1.1-3.5,2.5-6.9,4.2-10.2c2.6-4.9,1.7-10.9-2.2-14.8l-5.2-5.2c-2.4-2.4-3.1-6-1.8-9.1
	c1.3-3.1,4.3-5.2,7.7-5.2c2.2,0,4.4,0.9,5.9,2.5l5.2,5.2c3.9,3.9,9.9,4.8,14.8,2.2c3.2-1.7,6.7-3.1,10.2-4.2c5.3-1.6,9-6.4,9-12
	v-7.4c0-4.6,3.8-8.4,8.4-8.4c4.6,0,8.4,3.8,8.4,8.4v7.4c0,5.5,3.6,10.4,8.9,11.9c3.5,1.1,6.9,2.5,10.2,4.2
	c4.9,2.6,10.9,1.7,14.8-2.2l5.2-5.2c1.6-1.6,3.7-2.5,5.9-2.5c4.6,0,8.4,3.8,8.4,8.4c0,2.2-0.9,4.4-2.5,5.9l-5.2,5.2
	c-3.9,3.9-4.8,9.9-2.2,14.8c1.7,3.2,3.1,6.7,4.2,10.2c1.6,5.3,6.5,8.9,12,8.9h7.4C484.2,93.5,487.9,97.2,487.9,101.9z"/>
<path class="st0" d="M404.1,60c-23.1,0-41.9,18.8-41.9,41.9c0,23.1,18.8,41.9,41.9,41.9c23.1,0,41.9-18.8,41.9-41.9
	C446,78.7,427.3,60,404.1,60z M404.1,127c-13.9,0-25.1-11.3-25.1-25.1s11.3-25.1,25.1-25.1s25.1,11.3,25.1,25.1
	c0,6.7-2.6,13.1-7.4,17.8S410.8,127,404.1,127z"/>
</svg>
