<?xml version="1.0" encoding="utf-8"?>
<!-- Generator: Adobe Illustrator 25.0.0, SVG Export Plug-In . SVG Version: 6.00 Build 0)  -->
<svg version="1.1" id="Capa_1" xmlns="http://www.w3.org/2000/svg" xmlns:xlink="http://www.w3.org/1999/xlink" x="0px" y="0px"
	 viewBox="0 0 512 512" style="enable-background:new 0 0 512 512;" xml:space="preserve">
<style type="text/css">
	.st0{fill:#FFFFFF;}
</style>
<g>
	<g>
		<path class="st0" d="M440,476.6c-22.8-114.5-21.8-109.7-21.9-110.1c-3-14.5-11.4-26.5-25-34c-6.4-3.5-10.1-4.1-13.3-5.1l-56-19.5
			L305,295v-14.5c27.3-16.2,44.7-44.2,47.9-74.4c22.8,1.1,38.7-20.8,29.2-39.9v-61.1c0-44.2-24-59.6-31.4-63.3
			C314.7-1.1,247.6-12.1,196.7,14l-0.1,0c-0.9,0.5-11.4,5.4-24.3,16.2c-3.1,2.7-3.5,7.4-0.8,10.6c2.7,3.1,7.5,3.5,10.6,0.8
			C232-0.3,306,10.5,340.2,52.6c0.8,1,1.9,1.8,3.1,2.3c1,0.4,23.8,10,23.8,50.2v47.3c-4.2-1.8-8.7-2.7-13.6-2.5v-24.5
			c0-6.2-4.7-11.4-10.9-12c-12.6-1.2-19.7-9.4-23.4-16.1c-4.6-8.4-15.7-10.4-23-4.2c-33.4,28.6-71.9,30-98.4,26.2
			c-20-2.9-38.5,10.7-41.7,30.5c-4.9-0.2-9.7,0.6-14.1,2.5c0-25.8-2.9-53.9,18.2-86.1c2.3-3.5,1.3-8.1-2.2-10.4
			c-3.5-2.3-8.1-1.3-10.4,2.2c-28.7,44-18.5,83.5-20.6,108.1c-9.6,19.1,6.3,40.9,29.2,39.9c3.7,35.6,25.7,56.1,26.2,57l0,0
			c3.9,3.7,10.9,11.5,24.5,19V295l-18.7,12.8c-73.1,25.4-65.7,22.3-71.6,25.9c-11.2,6.9-19,17.5-22.2,30.5
			c-0.6,2.6,0.4-2.3-22.4,112.3c-0.5,2.3-0.7,6.8-0.3,10.7C73.4,503,84.6,512,102.3,512h206.1c4.1,0,7.5-3.4,7.5-7.5
			s-3.4-7.5-7.5-7.5H155.1v-68.7c0-4.1-3.4-7.5-7.5-7.5s-7.5,3.4-7.5,7.5V497h-37.7c-11.8,0-17.3-5-15.6-17.7
			c20.5-100.3,20.6-108.4,23.9-116.6c0.6-0.8,3.8-12.4,19.7-19.1c1.6-0.7,0.6-0.2,6.3-1.9c0.3-0.1-1.4,0.5,25.6-8.9l18,33.2
			c2,3.6,6.5,5,10.2,3c3.6-2,5-6.5,3-10.2l-16.8-31l11.5-4c5.5,10.2,54.6,100.7,59.9,110.6c3.3,6.1,11.7,6.4,15.5,1.1
			c0.7-1-3.3,6.2,60.5-111.7l11.5,4l-60.7,112.3c-8,14.8-29.3,14.8-37.3,0L210,389.6c-2-3.6-6.5-5-10.2-3c-3.6,2-5,6.5-3,10.2
			l27.4,50.5c13.7,25.3,50,25.2,63.7,0l61.9-114.5c26.9,9.3,25.3,8.8,25.6,8.9c5.3,1.6,4.7,1.3,6.3,1.9c5.7,2.4,9.2,5.3,9.1,5.2
			c5.9,4.7,9.9,10.2,12.1,18.3c0.4,1.3,22.6,111.7,22.7,115.4c0.2,9.4-3.8,14.6-15.8,14.6h-37.7v-68.7c0-4.1-3.4-7.5-7.5-7.5
			s-7.5,3.4-7.5,7.5V497h-13.5c-4.1,0-7.5,3.4-7.5,7.5s3.4,7.5,7.5,7.5h66.3c17.8,0,28.9-9,30.6-24.8
			C440.7,483.5,440.5,478.9,440,476.6z M353.5,164.9c8.6-0.5,16.4,5.4,16.4,13.1c0,7.8-7.8,13.6-16.4,13.1L353.5,164.9L353.5,164.9z
			 M155.7,191.1c-8.6,0.5-16.4-5.4-16.4-13.1c0-7.8,7.8-13.6,16.4-13.1V191.1z M195.8,134.2c29.5,4.3,72.5,2.6,110.2-29.7l0.1,0
			c7.2,13,18.7,21.3,32.4,23.4v26.6l-8.6,5.1c-3.5-5.1-9.4-8.4-16-8.4h-34.3c-8.1,0-15,5-18,12h-14c-2.9-7-9.9-12-18-12h-34.3
			c-6.6,0-12.5,3.3-16,8.4l-8.5-5C171.5,141.7,183,132.4,195.8,134.2z M318.4,170.7v14.9c0,6.5-5.3,11.8-11.8,11.8h-19.7
			c-6.5,0-11.8-5.3-11.8-11.8v-14.9h0c0-2.4,2.1-4.5,4.5-4.5h34.3C316.4,166.2,318.4,168.2,318.4,170.7z M234.1,170.7v14.9
			c0,6.5-5.3,11.8-11.8,11.8h-19.7c-6.5,0-11.8-5.3-11.8-11.8v-14.9c0-2.4,2.1-4.5,4.5-4.5h34.3C232,166.2,234.1,168.2,234.1,170.7z
			 M190.9,250c-24.3-28.3-19.6-55.8-20.2-78.1l5.1,3v10.7c0,14.8,12,26.8,26.8,26.8h19.7c14.8,0,26.8-12,26.8-26.8v-7.4h11v7.4
			c0,14.8,12,26.8,26.8,26.8h19.7c14.8,0,26.8-12,26.8-26.8V175l5.1-3v23.5c0,44.6-35.3,83.4-83.9,83.9c-0.1,0-1.1,0-1,0
			c-13-0.1-22.9-3.5-21.9-3.2C216.9,272.1,202.9,263.6,190.9,250z M256,334l-34-37.9v-7.3c15.7,5.4,31.9,6.7,47,4.5
			c4.2-0.6,8.8-1.6,11.4-2.4c0.6-0.2,4.3-1.1,9.7-3.2v8.3L256,334z M264.5,360.7l-3.3,6.8h-10.3l-3.3-6.8l8.4-6.2L264.5,360.7z
			 M236.2,381.3l-4.8-8.8l3.8-2.8l2.8,5.9L236.2,381.3z M224.3,359.2L201.5,317l11.8-8.1l31.6,35.2
			C243.1,345.4,226.1,357.8,224.3,359.2z M256,417.8l-9.9-18.3l5.5-17h8.8l5.5,17C262.8,405.3,259.9,410.7,256,417.8z M275.8,381.3
			l-1.9-5.7l2.8-5.9l3.8,2.8L275.8,381.3z M287.7,359.2c-1.9-1.4-18.2-13.4-20.6-15.1l31.6-35.2l11.8,8.1
			C302.9,331,292.6,350.1,287.7,359.2z"/>
	</g>
</g>
</svg>
